examples/negator_tb.vcd
$date
	Wed Apr 26 09:36:56 2017
$end
$version
	Icarus Verilog
$end
$timescale
	1s
$end
$scope module negator_tb $end
$var wire 1 ! out $end
$var reg 1 " clock $end
$scope module top $end
$var wire 1 " in $end
$var wire 1 ! out $end
$upscope $end
$upscope $end
$enddefinitions $end
#0
$dumpvars
0"
1!
$end
#1
0!
1"
#2
1!
0"
#3
0!
1"
#4
1!
0"
#5
0!
1"
#6
1!
0"
#7
0!
1"
#8
1!
0"
#9
0!
1"
#10
1!
0"
